﻿{
  "$schema": "http://json-schema.org/schemas/2014-11-01/apiapp.json#",
  "id": "FilmNet.Api",
  "namespace": "microsoft.com",
  "gateway": "2015-01-14",
  "version": "1.0.0",
  "title": "FilmNet.Api",
  "summary": "",
  "author": "",
  "endpoints": null
}